Lab 4
…
defense <- read_excel('cyclonesFootball2019.xlsx', sheet='Defensive')
offense <- read_excel('cyclonesFootball2019.xlsx', sheet='Offensive')
biography <- read_excel('cyclonesFootball2019.xlsx', sheet='Biography')

Part 1 Questions 1, 2, 3:

offClean <- offense %>% mutate_at('Rushing_ATT',as.numeric)%>% mutate_at('Rushing_YDS',as.numeric)%>% mutate_at('Rushing_TD',as.numeric)%>% mutate_at('Receiving_REC',as.numeric)%>% mutate_at('Receiving_YDS',as.numeric)%>% mutate_at('Receiving_TD',as.numeric)%>% mutate_at('Passing_CMP-ATT',as.numeric)%>% mutate_at('Passing_YDS',as.numeric)%>% mutate_at('Passing_TD',as.numeric)%>% mutate_at('Passing_INT',as.numeric)%>% mutate(Name = factor(Name)) %>% mutate(Opponent_Opponent = factor(Opponent_Opponent))

## Warning: NAs introduced by coercion

offClean

## # A tibble: 195 x 12
##    Name  Opponent_Oppone~ Rushing_ATT Rushing_YDS Rushing_TD Receiving_REC
##    <fct> <fct>                  <dbl>       <dbl>      <dbl>         <dbl>
##  1 Aker~ UNI                        0           0          0             1
##  2 Aker~ Iowa                       0           0          0             0
##  3 Aker~ ULM                        1           8          0             0
##  4 Aker~ Baylor                     0           0          0             0
##  5 Aker~ TCU                        0           0          0             1
##  6 Aker~ West Virginia              0           0          0             0
##  7 Aker~ Texas Tech                 0           0          0             0
##  8 Aker~ Oklahoma State             0           0          0             4
##  9 Aker~ Oklahoma                   0           0          0             0
## 10 Aker~ Texas                      0           0          0             1
## # ... with 185 more rows, and 6 more variables: Receiving_YDS <dbl>,
## #   Receiving_TD <dbl>, `Passing_CMP-ATT` <dbl>, Passing_YDS <dbl>,
## #   Passing_TD <dbl>, Passing_INT <dbl>

defClean <- defense %>% mutate_at('Tackles_Solo',as.numeric)%>% mutate_at('Tackles_ASST',as.numeric)%>% mutate_at('Tackles_TFL',as.numeric)%>% mutate_at('Tackles_Sack',as.numeric)%>% mutate_at('Turnover_FF',as.numeric)%>% mutate_at('Turnover_FR',as.numeric)%>% mutate_at('Turnover_INT',as.numeric)%>% mutate_at('Pass_QBH',as.numeric)%>% mutate_at('Pass_PB',as.numeric)%>% mutate(Name = factor(Name)) %>% mutate(Opponent_Opponent = factor(Opponent_Opponent))
defClean

## # A tibble: 502 x 11
##    Name  Opponent_Oppone~ Tackles_Solo Tackles_ASST Tackles_TFL Tackles_Sack
##    <fct> <fct>                   <dbl>        <dbl>       <dbl>        <dbl>
##  1 Whit~ UNI                         4            4           0            0
##  2 Whit~ Iowa                        4            7           0            0
##  3 Whit~ ULM                         3            5           0            0
##  4 Whit~ Baylor                      4            2           0            0
##  5 Whit~ TCU                         3            2           1            0
##  6 Whit~ West Virginia               1            1           0            0
##  7 Whit~ Texas Tech                  7            1           0            0
##  8 Whit~ Oklahoma State              3            2           0            0
##  9 Whit~ Oklahoma                    6            1           1            0
## 10 Whit~ Texas                       5            5           1            1
## # ... with 492 more rows, and 5 more variables: Turnover_FF <dbl>,
## #   Turnover_FR <dbl>, Turnover_INT <dbl>, Pass_QBH <dbl>, Pass_PB <dbl>

bioClean <- biography %>% mutate_at('Weight',as.numeric) %>% mutate(Name = factor(Name)) %>% separate(col = Height, into = c('Feet','Inches'), sep = "-")%>% mutate(Feet = as.numeric(Feet))%>% mutate(Inches = as.numeric(Inches))%>% mutate(Feet = Feet *12)%>%rowwise() %>% mutate(Inches = sum(Feet, Inches))%>% select(-Feet)
bioClean

## Source: local data frame [105 x 7]
## Groups: <by row>
## 
## # A tibble: 105 x 7
##    Name         Position     Inches Weight Class       Hometown       Highschool
##    <fct>        <chr>         <dbl>  <dbl> <chr>       <chr>          <chr>     
##  1 Akers, Land~ Wide Receiv~     72    188 Redshirt S~ Cedar Rapids,~ Washington
##  2 Allen, Chase Tight End        79    245 Redshirt S~ Nixa, Mo.      Nixa      
##  3 Anderson, E~ Wide Receiv~     77    204 Redshirt F~ Seffner, Fla.  Armwood   
##  4 Assalley, C~ Placekicker      72    195 Redshirt S~ Naperville, I~ Central   
##  5 Azunna, Arn~ Defensive B~     72    190 Redshirt S~ Grand Prairie~ Lake Ridge
##  6 Bailey, Cor~ Defensive E~     75    235 Redshirt J~ Clarksdale, M~ Clarksdale
##  7 Bailey, JaQ~ Defensive E~     74    255 Redshirt S~ Jacksonville,~ Raines    
##  8 Bailey, Jos~ Defensive L~     74    285 Redshirt S~ Jacksonville,~ Raines    
##  9 Bankston, L~ Defensive L~     72    300 Junior      Woodstock, Ga. Woodstock 
## 10 Bouman, Aid~ Quarterback      78    215 Freshman    Buffalo, Minn. Buffalo   
## # ... with 95 more rows
…
